…
    ## ── Column specification ────────────────────────────────────────────────────────
    ## Delimiter: ","
    ## chr (9): uid, victim_last, victim_first, victim_race, victim_age, victim_sex...
    ## dbl (3): reported_date, lat, lon

    ## 
    ## ℹ Use `spec()` to retrieve the full column specification for this data.
    ## ℹ Specify the column types or set `show_col_types = FALSE` to quiet this message.

``` r
homicide_df_raw
```

    ## # A tibble: 52,179 × 12
    ##    uid        reported_date victim_last  victim_first victim_race victim_age
    ##    <chr>              <dbl> <chr>        <chr>        <chr>       <chr>     
    ##  1 Alb-000001      20100504 GARCIA       JUAN         Hispanic    78        
    ##  2 Alb-000002      20100216 MONTOYA      CAMERON      Hispanic    17        
    ##  3 Alb-000003      20100601 SATTERFIELD  VIVIANA      White       15        
    ##  4 Alb-000004      20100101 MENDIOLA     CARLOS       Hispanic    32        
    ##  5 Alb-000005      20100102 MULA         VIVIAN       White       72        
    ##  6 Alb-000006      20100126 BOOK         GERALDINE    White       91        
    ##  7 Alb-000007      20100127 MALDONADO    DAVID        Hispanic    52        
    ##  8 Alb-000008      20100127 MALDONADO    CONNIE       Hispanic    52        
    ##  9 Alb-000009      20100130 MARTIN-LEYVA GUSTAVO      White       56        
    ## 10 Alb-000010      20100210 HERRERA      ISRAEL       Hispanic    43        
    ## # … with 52,169 more rows, and 6 more variables: victim_sex <chr>, city <chr>,
    ## #   state <chr>, lat <dbl>, lon <dbl>, disposition <chr>
…
I’ll then use the updated dataframe to summarize within cities to obtain
the total number of homicides and the number or unsolved homicides.

``` r
#those for which the disposition is “Closed without arrest” or “Open/No arrest”
homicide_df %>%
  group_by(city_state) %>%
  summarize(
    unsolved = sum(resolution == "unsolved"),
    n = n()
  )
```

    ## # A tibble: 50 × 3
    ##    city_state    unsolved     n
    ##    <chr>            <int> <int>
    ##  1 AlbuquerqueNM      146   378
    ##  2 AtlantaGA          373   973
    ##  3 BaltimoreMD       1825  2827
    ##  4 Baton RougeLA      196   424
    ##  5 BirminghamAL       347   800
    ##  6 BostonMA           310   614
    ##  7 BuffaloNY          319   521
    ##  8 CharlotteNC        206   687
    ##  9 ChicagoIL         4073  5535
    ## 10 CincinnatiOH       309   694
    ## # … with 40 more rows
…
results_df
```

    ## # A tibble: 50 × 4
    ##    city_state    estimate conf.low conf.high
    ##    <chr>            <dbl>    <dbl>     <dbl>
    ##  1 AlbuquerqueNM    0.386    0.337     0.438
    ##  2 AtlantaGA        0.383    0.353     0.415
    ##  3 BaltimoreMD      0.646    0.628     0.663
    ##  4 Baton RougeLA    0.462    0.414     0.511
    ##  5 BirminghamAL     0.434    0.399     0.469
    ##  6 BostonMA         0.505    0.465     0.545
    ##  7 BuffaloNY        0.612    0.569     0.654
    ##  8 CharlotteNC      0.300    0.266     0.336
    ##  9 ChicagoIL        0.736    0.724     0.747
    ## 10 CincinnatiOH     0.445    0.408     0.483
    ## # … with 40 more rows
…
    ## Rows: 1 Columns: 8

    ## ── Column specification ────────────────────────────────────────────────────────
    ## Delimiter: ","
    ## dbl (8): week_1, week_2, week_3, week_4, week_5, week_6, week_7, week_8

    ## 
    ## ℹ Use `spec()` to retrieve the full column specification for this data.
    ## ℹ Specify the column types or set `show_col_types = FALSE` to quiet this message.

``` r
files_df
```

    ## # A tibble: 160 × 4
    ##     week observation arm   id   
    ##    <dbl>       <dbl> <chr> <chr>
    ##  1     1        0.2  con   01   
    ##  2     2       -1.31 con   01   
    ##  3     3        0.66 con   01   
    ##  4     4        1.96 con   01   
    ##  5     5        0.23 con   01   
    ##  6     6        1.09 con   01   
    ##  7     7        0.05 con   01   
    ##  8     8        1.94 con   01   
    ##  9     1        1.13 con   02   
    ## 10     2       -0.88 con   02   
    ## # … with 150 more rows
…
I will then apply to function to the columns of the initial dataframe

``` r
#replace missing values
new_iris = 
  iris_with_missing %>%
  map_df(~replace_missing_vals(.x))

new_iris
```

    ## # A tibble: 150 × 5
    ##    Sepal.Length Sepal.Width Petal.Length Petal.Width Species
    ##           <dbl>       <dbl>        <dbl>       <dbl> <chr>  
    ##  1         5.1          3.5         1.4         0.2  setosa 
    ##  2         4.9          3           1.4         0.2  setosa 
    ##  3         4.7          3.2         1.3         0.2  setosa 
    ##  4         4.6          3.1         1.5         1.19 setosa 
    ##  5         5            3.6         1.4         0.2  setosa 
    ##  6         5.4          3.9         1.7         0.4  setosa 
    ##  7         5.82         3.4         1.4         0.3  setosa 
    ##  8         5            3.4         1.5         0.2  setosa 
    ##  9         4.4          2.9         1.4         0.2  setosa 
    ## 10         4.9          3.1         3.77        0.1  setosa 
    ## # … with 140 more rows
…
